Austin Animal Shelter Data - Occasion
…
Here, we are feature engineering a season variable, to better look at how seasons affect adoptions.

# mutates in outcome date per month
cats_fixed <- cats_select %>% 
  mutate(outcome_date = format(as.Date(cats$datetime,format="%m/%d/%Y"), "%d")) 

# adds in season column to cats_fixed
yq <- as.yearqtr(as.yearmon(cats_fixed$datetime, "%m/%d/%Y") + 1/12) # use zoo fn as.yearmon
cats_fixed$Season <- factor(format(yq, "%q"), levels = 1:4, 
                labels = c("Winter", "Spring", "Summer", "Fall"))
# output
cats_fixed

## # A tibble: 29,421 x 9
##    datetime outcome_subtype outcome_type outcome_month outcome_year
##    <chr>    <chr>           <chr>                <dbl>        <dbl>
##  1 7/22/20… Partner         Transfer                 7         2014
##  2 8/14/20… <NA>            Adoption                 8         2014
##  3 6/29/20… Offsite         Adoption                 6         2014
##  4 3/28/20… <NA>            Return to O…             3         2014
##  5 1/9/201… Partner         Transfer                 1         2014
##  6 8/13/20… <NA>            Adoption                 8         2014
##  7 3/6/201… SCRP            Transfer                 3         2014
##  8 8/31/20… <NA>            Adoption                 8         2014
##  9 10/31/2… Foster          Adoption                10         2014
## 10 12/16/2… Partner         Transfer                12         2013
## # … with 29,411 more rows, and 4 more variables: outcome_weekday <chr>,
## #   outcome_hour <dbl>, outcome_date <chr>, Season <fct>
…
I have created a new table with the event name, date, month, and season. These are the four events that were relevant to the data. For 2014, an event was held throughout each season, except for spring. Next, we will join the outside events data with our main cats dataset.

# add in bool column for if a date has an even
cats_fixed <- cats_fixed %>%
  mutate(has_event = !(is.na(event))) 
# turn into 0/1 value
cats_fixed$has_event <- as.integer(as.logical(cats_fixed$has_event))
# output
#cats_fixed

## # A tibble: 121 x 13
##    datetime outcome_subtype outcome_type outcome_month outcome_year
##    <chr>    <chr>           <chr>                <dbl>        <dbl>
##  1 8/24/20… SCRP            Transfer                 8         2014
##  2 8/24/20… Partner         Transfer                 8         2014
##  3 8/24/20… Partner         Transfer                 8         2014
##  4 8/24/20… SCRP            Transfer                 8         2014
##  5 8/24/20… Partner         Transfer                 8         2014
##  6 8/24/20… Partner         Transfer                 8         2014
##  7 8/24/20… Partner         Transfer                 8         2014
##  8 8/24/20… <NA>            Adoption                 8         2014
##  9 8/24/20… Partner         Transfer                 8         2014
## 10 8/24/20… <NA>            Return to O…             8         2014
## # … with 111 more rows, and 8 more variables: outcome_weekday <chr>,
## #   outcome_hour <dbl>, outcome_date <chr>, Season <fct>, event <chr>,
## #   event_date <chr>, event_Season <fct>, has_event <int>
…
##   outcome_month    outcome_year outcome_weekday    outcome_hour 
##               0               0               0               0 
##    outcome_date          Season       has_event         adopted 
##               0               0               0               0

# change adopted to factor
cats_rf$adopted <- as.character(cats_rf$adopted)
cats_rf$adopted <- as.factor(cats_rf$adopted)

In order to use random forest, we must remove any columns with many NAs. Luckily, these columns are represented by other variables, so we are not losing much data. We also turn any character data in factors.

We split the data into training and validation sets.

## # A tibble: 20,592 x 8
##    outcome_month outcome_year outcome_weekday outcome_hour outcome_date
##            <dbl>        <dbl> <fct>                  <dbl> <fct>       
##  1             8         2014 Sunday                    16 31          
##  2             9         2017 Thursday                   0 28          
##  3             7         2016 Saturday                  19 09          
##  4             5         2016 Wednesday                  9 04          
##  5             3         2017 Friday                    13 17          
##  6             5         2017 Friday                    18 26          
##  7             4         2016 Monday                    11 25          
##  8             3         2014 Monday                    15 03          
##  9             8         2014 Sunday                     9 03          
## 10            12         2015 Wednesday                 19 02          
## # … with 20,582 more rows, and 3 more variables: Season <fct>,
## #   has_event <int>, adopted <fct>

## # A tibble: 8,826 x 8
##    outcome_month outcome_year outcome_weekday outcome_hour outcome_date
##            <dbl>        <dbl> <fct>                  <dbl> <fct>       
##  1             8         2014 Thursday                  18 14          
##  2             8         2014 Wednesday                 16 27          
##  3             7         2014 Saturday                  15 12          
##  4            11         2014 Sunday                     9 09          
##  5             9         2014 Saturday                  18 20          
##  6             9         2014 Sunday                     9 14          
##  7             5         2014 Tuesday                   10 13          
##  8            12         2013 Tuesday                   12 24          
##  9            12         2013 Tuesday                   16 24          
## 10            10         2014 Sunday                    16 05          
## # … with 8,816 more rows, and 3 more variables: Season <fct>,
## #   has_event <int>, adopted <fct>
…
